…
Aisle Count:

``` r
instacart %>% 
  group_by(aisle_id) %>% 
  summarize(n_obs= n()) %>% 
  arrange(desc(n_obs))
```

    ## # A tibble: 134 × 2
    ##    aisle_id  n_obs
    ##       <int>  <int>
    ##  1       83 150609
    ##  2       24 150473
    ##  3      123  78493
    ##  4      120  55240
    ##  5       21  41699
    ##  6      115  36617
    ##  7       84  32644
    ##  8      107  31269
    ##  9       91  26240
    ## 10      112  23635
    ## # … with 124 more rows
…
``` r
accel_data %>% 
  group_by(day_id) %>% 
  mutate(
    tot_active= sum(active_counts)) %>% 
  summarize(day_id, tot_active) %>% 
  distinct %>% 
  print (n=)
```

    ## `summarise()` has grouped output by 'day_id'. You can override using the
    ## `.groups` argument.

    ## # A tibble: 35 × 2
    ## # Groups:   day_id [35]
    ##    day_id tot_active
    ##     <dbl>      <dbl>
    ##  1      1    480543.
    ##  2      2     78828.
    ##  3      3    376254 
    ##  4      4    631105 
    ##  5      5    355924.
    ##  6      6    307094.
    ##  7      7    340115.
    ##  8      8    568839 
    ##  9      9    295431 
    ## 10     10    607175 
    ## # … with 25 more rows
…
**Variable type: numeric**

| skim_variable | n_missing | complete_rate |  mean |     sd |  p0 | p25 | p50 | p75 |  p100 | hist  |
|:--------------|----------:|--------------:|------:|-------:|----:|----:|----:|----:|------:|:------|
| prcp          |    145838 |          0.94 | 29.82 |  78.18 |   0 |   0 |   0 |  23 | 22860 | ▇▁▁▁▁ |
| snow          |    381221 |          0.85 |  4.99 |  27.22 | -13 |   0 |   0 |   0 | 10160 | ▇▁▁▁▁ |
| snwd          |    591786 |          0.77 | 37.31 | 113.54 |   0 |   0 |   0 |   0 |  9195 | ▇▁▁▁▁ |

Snow Count:

``` r
count(ny_noaa_3, snow) 
```

    ## # A tibble: 282 × 2
    ##     snow       n
    ##    <dbl>   <int>
    ##  1   -13       1
    ##  2     0 2008508
    ##  3     3    8790
    ##  4     5    9748
    ##  5     8    9962
    ##  6    10    5106
    ##  7    13   23095
    ##  8    15    3672
    ##  9    18    3226
    ## 10    20    4797
    ## # … with 272 more rows
…
